date|from|to|body
02/10/2015:6:59:pm|Sriram|IR Group|"Hi guys, this blog: http://blog.diniscruz.com/2013/06/installing-ignites-openfire-and-spark.html will help you install Spark and setup OpenFire server. You can get a feel of the interface and options available in spark IM"
02/10/2015:7:01:pm|Vinuthna|IR Group|okay
02/10/2015:7:01:pm|Sriram|IR Group|Make sure you have WAMP server installed before installing Spark if you are working in Windows
02/10/2015:7:02:pm|?+91 94899 21989?|IR Group|Great !!! Good to see the discussions
02/10/2015:7:03:pm|Vandana|IR Group|okay
02/10/2015:7:04:pm|Sriram|IR Group|okay
02/10/2015:7:08:pm|Dr. Vidhya B Mam|IR Group|"Rahul, Ved and myself had a discussion today in the lab and came up with ideas for the first level. Please get details from Rahul"
02/10/2015:7:09:pm|Vandana|IR Group|OK mam okay
02/10/2015:7:09:pm|Sriram|IR Group|Ok mamokay
02/10/2015:7:16:pm|Vinuthna|IR Group|Ok mam
06/10/2015:10:15:pm|Vandana|IR Group|Mam ! When do we have meeting tmrw??
07/10/2015:4:26:pm|Dr. Vidhya B Mam|IR Group|Is tomorrow 4.30 ok for the webex
07/10/2015:5:11:pm|Vandana|IR Group|Yes mam okay
08/10/2015:5:46:pm|?+91 94899 21989?|IR Group|Hats off to our students good job
08/10/2015:7:31:pm|Dr. Vidhya B Mam|IR Group|okay
13/10/2015:2:14:pm|?+91 94899 21989?|IR Group|Tomorrow 4pm meeting  in ground floor conference room
13/10/2015:10:39:pm|Sriram|IR Group|okay
16/10/2015:10:51:am|Dr. Vidhya B Mam|IR Group|Meeting today at 4
16/10/2015:10:53:am|Vinuthna|IR Group|okay
29/10/2015:6:18:pm|Vandana|IR Group|Mam v din receive estimation mail from Ravi sir till now..
29/10/2015:7:21:pm|Dr. Vidhya B Mam|IR Group|Forwarded it to you
29/10/2015:7:22:pm|Vandana|IR Group|OK mam okay
29/10/2015:7:55:pm|?+91 94899 21989?|IR Group|I also forwarded
29/10/2015:8:31:pm|Vandana|IR Group|OK mam okay
06/11/2015:12:40:pm|Dr. Vidhya B Mam|IR Group|Cisco wants to discuss today. Can we meet at 4?
06/11/2015:12:50:pm|Vandana|IR Group|OK mam ...
06/11/2015:1:02:pm|Dr. Vidhya B Mam|IR Group|Please inform others there will be a meeting around 4.15
06/11/2015:1:46:pm|Sriram|IR Group|Ok mam
06/11/2015:2:16:pm|?+91 94899 21989?|IR Group|Ok mam
06/11/2015:5:31:pm|?+91 94899 21989?|IR Group|Meeting over
11/11/2015:6:27:pm|Dr. Vidhya B Mam|IR Group|Guys can I have a status update
11/11/2015:7:14:pm|Sriram|IR Group|"Mam, we are deciding on the number of mock pages that are required to implement the user stories. We'll finalize the design of the mock pages and start implementing it asap"
11/11/2015:7:16:pm|Dr. Vidhya B Mam|IR Group|OK sounds good
11/11/2015:7:16:pm|Sriram|IR Group|We will complete the implementation in 2-3 days after finalizing the layout/design of the pages/content
11/11/2015:7:17:pm|Dr. Vidhya B Mam|IR Group|Can I get some idea of how you are planning the interface tomorrow
11/11/2015:7:17:pm|Sriram|IR Group|Ok mam
17/11/2015:5:40:pm|Dr. Vidhya B Mam|IR Group|Can we have an internal meeting tomorrow to review the progress
17/11/2015:5:41:pm|?+91 94899 21989?|IR Group|Time?
17/11/2015:5:41:pm|Dr. Vidhya B Mam|IR Group|4?
17/11/2015:5:41:pm|?+91 94899 21989?|IR Group|Ok
17/11/2015:5:41:pm|?+91 94899 21989?|IR Group|4:15
17/11/2015:5:42:pm|?+91 94899 21989?|IR Group|Last hr class
17/11/2015:5:42:pm|?+91 94899 21989?|IR Group|Main block
17/11/2015:5:43:pm|Dr. Vidhya B Mam|IR Group|Ok
19/11/2015:5:15:pm|Sriram|IR Group|"Mam, we'll show you the final mock pages tomorrow. And do we have a review with Cisco tomorrow?"
20/11/2015:12:18:am|Dr. Vidhya B Mam|IR Group|We don't have review with cisco but based on what we have  we can update them
20/11/2015:12:19:am|Sriram|IR Group|Ok mam
20/11/2015:12:20:am|Vinuthna|IR Group|Okokay
20/11/2015:12:29:am|Vandana|IR Group|OK mamokay
24/11/2015:4:03:pm|Dr. Vidhya B Mam|IR Group|Sriram can I see the ui
24/11/2015:7:03:pm|Sriram|IR Group|Ma'am I'll send it in half an hour
24/11/2015:11:28:pm|Dr. Vidhya B Mam|IR Group|Sriram the screens look pretty good now. Good job. Will give more comments tomorrow
24/11/2015:11:29:pm|?+91 94899 21989?|IR Group|Mam do we have Cisco meeting tomorrow
24/11/2015:11:29:pm|Sriram|IR Group|Ok mam
24/11/2015:11:31:pm|Sriram|IR Group|Still few refinements have to be done to the UI. I'll do it tomorrow evening.
24/11/2015:11:32:pm|Dr. Vidhya B Mam|IR Group|I am not sure will confirm. I have sent one version to him so that it doesn't look like nothing is done
24/11/2015:11:33:pm|Sriram|IR Group|Ok mam
24/11/2015:11:33:pm|Dr. Vidhya B Mam|IR Group|Yes I think there is a meeting tomorrow evening
26/11/2015:11:33:am|Dr. Vidhya B Mam|IR Group|Can we discuss the scope for sprint 2 today
26/11/2015:11:36:am|Sriram|IR Group|Yes mam
